ee180lab3/starter/sim/tests/and/streamwave.vcd
$date
	Fri Jan 12 20:30:03 2018
$end
$version
	Icarus Verilog
$end
$timescale
	1ps
$end
$scope module userlogic_test $end
$var wire 32 ! data_out [31:0] $end
$var wire 15 " input_buffer_addr [14:0] $end
$var wire 15 # output_buffer_addr [14:0] $end
$var wire 32 $ ul_instr [31:0] $end
$var wire 32 % ul_instr_addr [31:0] $end
$var wire 32 & ul_read_addr [31:0] $end
$var wire 32 ' ul_read_data [31:0] $end
$var wire 32 ( ul_status [31:0] $end
$var wire 32 ) ul_test [31:0] $end
$var wire 32 * ul_write_addr [31:0] $end
$var wire 32 + ul_write_data [31:0] $end
$var wire 16 , ul_write_data_hi [15:0] $end
$var wire 16 - ul_write_data_lo [15:0] $end
$var wire 2 . ul_write_en_hi [1:0] $end
$var wire 2 / ul_write_en_lo [1:0] $end
$var reg 1 0 clk $end
$var reg 32 1 cycle_count [32:1] $end
$var integer 32 2 dump_vars [31:0] $end
$var reg 8192 3 dump_vars_filename [8192:1] $end
$var integer 32 4 i [31:0] $end
$var reg 10 5 image_n_columns [9:0] $end
$var reg 10 6 image_n_rows [9:0] $end
$var reg 8192 7 input_buffer_filename [8192:1] $end
$var reg 8192 8 instr_mem_filename [8192:1] $end
$var reg 32 9 num_cycles [32:1] $end
$var reg 33 : out_end_addr [32:0] $end
$var reg 33 ; out_start_addr [32:0] $end
$var integer 32 < outfile [31:0] $end
$var reg 8192 = output_buffer_filename [8192:1] $end
$var reg 15 > read_addr [14:0] $end
$var integer 32 ? read_input_buffer [31:0] $end
$var integer 32 @ read_instr_mem [31:0] $end
$var integer 32 A result [31:0] $end
$var reg 1 B rst_n $end
$var reg 8192 C test_result_filename [8192:1] $end
$var reg 32 D ul_command [31:0] $end
$var integer 32 E write_output_buffer [31:0] $end
$var integer 32 F write_test_result [31:0] $end
$scope module instr_mem $end
$var wire 14 G addr [13:0] $end
$var wire 1 H clk $end
$var wire 32 I din [31:0] $end
$var wire 1 J we $end
$var reg 32 K dout [31:0] $end
$upscope $end
$scope module input_buffer $end
$var wire 15 L addr [14:0] $end
$var wire 1 H clk $end
$var wire 32 M din [31:0] $end
$var wire 1 N we $end
$var reg 32 O dout [31:0] $end
$upscope $end
$scope module output_buffer $end
$var wire 15 P addr [14:0] $end
$var wire 1 H clk $end
$var wire 32 Q din [31:0] $end
$var wire 4 R we [3:0] $end
$var reg 32 S dout [31:0] $end
$scope begin column[0] $end
$upscope $end
$scope begin column[1] $end
$upscope $end
$scope begin column[2] $end
$upscope $end
$scope begin column[3] $end
$upscope $end
$upscope $end
$scope module ul $end
$var wire 1 T addr_cmd $end
$var wire 1 U addr_iobuf $end
$var wire 1 V addr_local $end
$var wire 1 W addr_status $end
$var wire 1 X addr_test $end
$var wire 1 H clk $end
$var wire 32 Y command [31:0] $end
$var wire 32 Z instr [31:0] $end
$var wire 32 [ instr_addr [31:0] $end
$var wire 32 \ mips_addr [31:0] $end
$var wire 32 ] mips_local_read_data [31:0] $end
$var wire 32 ^ mips_pc [31:0] $end
$var wire 32 _ mips_read_data [31:0] $end
$var wire 1 ` mips_read_en $end
$var wire 4 a mips_write_en [3:0] $end
$var wire 32 b read_addr_hi [31:0] $end
$var wire 32 c read_addr_lo [31:0] $end
$var wire 32 d read_data [31:0] $end
$var wire 16 e read_data_hi [15:0] $end
$var wire 16 f read_data_lo [15:0] $end
$var wire 1 g rst_n $end
$var wire 32 h status [31:0] $end
$var wire 32 i test [31:0] $end
$var wire 32 j write_addr_hi [31:0] $end
$var wire 32 k write_addr_lo [31:0] $end
$var wire 32 l write_data [31:0] $end
$var wire 16 m write_data_hi [15:0] $end
$var wire 16 n write_data_lo [15:0] $end
$var wire 2 o write_en_hi [1:0] $end
$var wire 2 p write_en_lo [1:0] $end
$var reg 32 q cmd_d [31:0] $end
$var reg 1 r read_cmd_d $end
$var reg 1 s read_iobuf_d $end
$var reg 32 t status_reg [31:0] $end
$var reg 32 u test_reg [31:0] $end
$scope module cpu $end
$var wire 32 v alu_op_x_ex [31:0] $end
$var wire 32 w alu_op_x_id [31:0] $end
$var wire 32 x alu_op_y_ex [31:0] $end
$var wire 32 y alu_op_y_id [31:0] $end
$var wire 1 z alu_op_y_zero_ex $end
$var wire 4 { alu_opcode_ex [3:0] $end
$var wire 4 | alu_opcode_id [3:0] $end
$var wire 1 } alu_overflow $end
$var wire 32 ~ alu_result_ex [31:0] $end
$var wire 32 !" alu_result_mem [31:0] $end
$var wire 32 "" alu_sc_result_ex [31:0] $end
$var wire 1 #" atomic_en $end
$var wire 1 H clk $end
$var wire 1 $" en $end
$var wire 1 %" en_if $end
$var wire 32 &" instr [31:0] $end
$var wire 32 '" instr_id [31:0] $end
$var wire 30 (" instr_number_id [29:0] $end
$var wire 32 )" instr_sav [31:0] $end
$var wire 32 *" jr_pc_id [31:0] $end
$var wire 1 +" jump_branch_id $end
$var wire 1 ," jump_reg_id $end
$var wire 1 -" jump_target_id $end
$var wire 32 ." mem_addr [31:0] $end
$var wire 1 /" mem_atomic_ex $end
$var wire 1 0" mem_atomic_id $end
$var wire 1 1" mem_byte_ex $end
$var wire 1 2" mem_byte_id $end
$var wire 1 3" mem_byte_mem $end
$var wire 32 4" mem_out [31:0] $end
$var wire 32 5" mem_read_data [31:0] $end
$var wire 32 6" mem_read_data_byte_extend [31:0] $end
$var wire 8 7" mem_read_data_byte_select [7:0] $end
$var wire 1 ` mem_read_en $end
$var wire 1 8" mem_read_ex $end
$var wire 1 9" mem_read_id $end
$var wire 1 :" mem_read_mem $end
$var wire 1 ;" mem_sc_ex $end
$var wire 1 <" mem_sc_id $end
$var wire 1 =" mem_sc_mask_id $end
$var wire 1 >" mem_signextend_ex $end
$var wire 1 ?" mem_signextend_id $end
$var wire 1 @" mem_signextend_mem $end
$var wire 1 A" mem_we_ex $end
$var wire 1 B" mem_we_id $end
$var wire 32 C" mem_write_data [31:0] $end
$var wire 32 D" mem_write_data_ex [31:0] $end
$var wire 32 E" mem_write_data_id [31:0] $end
$var wire 4 F" mem_write_en [3:0] $end
$var wire 1 G" movn_ex $end
$var wire 1 H" movn_id $end
$var wire 1 I" movz_ex $end
$var wire 1 J" movz_id $end
$var wire 32 K" pc [31:0] $end
$var wire 32 L" pc_id [31:0] $end
$var wire 32 M" pc_if [31:0] $end
$var wire 1 N" reg_we_cond_ex $end
$var wire 1 O" reg_we_ex $end
$var wire 1 P" reg_we_id $end
$var wire 1 Q" reg_we_mem $end
$var wire 1 R" reg_we_wb $end
$var wire 5 S" reg_write_addr_ex [4:0] $end
$var wire 5 T" reg_write_addr_id [4:0] $end
$var wire 5 U" reg_write_addr_mem [4:0] $end
$var wire 5 V" reg_write_addr_wb [4:0] $end
$var wire 32 W" reg_write_data_mem [31:0] $end
$var wire 32 X" reg_write_data_wb [31:0] $end
$var wire 5 Y" rs_addr_id [4:0] $end
$var wire 32 Z" rs_data_id [31:0] $end
$var wire 1 [" rst $end
$var wire 1 \" rst_id $end
$var wire 5 ]" rt_addr_id [4:0] $end
$var wire 32 ^" rt_data_id [31:0] $end
$var wire 32 _" sc_result [31:0] $end
$var wire 1 `" stall $end
$var wire 1 a" stall_r $end
$scope module if_stage $end
$var wire 1 H clk $end
$var wire 1 %" en $end
$var wire 26 b" instr_id [25:0] $end
$var wire 32 c" j_addr [31:0] $end
$var wire 1 -" jump_target $end
$var wire 32 d" pc [31:0] $end
$var wire 32 e" pc_id [31:0] $end
$var wire 32 f" pc_id_p4 [31:0] $end
$var wire 32 g" pc_next [31:0] $end
$var wire 1 [" rst $end
$scope module pc_reg $end
$var wire 1 H clk $end
$var wire 32 h" d [31:0] $end
$var wire 1 %" en $end
$var wire 1 [" r $end
$var reg 32 i" q [31:0] $end
$upscope $end
$upscope $end
$scope module pc_if2id $end
$var wire 1 H clk $end
$var wire 32 j" d [31:0] $end
$var wire 1 %" en $end
$var wire 1 [" r $end
$var reg 32 k" q [31:0] $end
$upscope $end
$scope module instr_sav_dff $end
$var wire 1 H clk $end
$var wire 32 l" d [31:0] $end
$var wire 1 $" en $end
$var wire 1 [" r $end
$var reg 32 m" q [31:0] $end
$upscope $end
$scope module stall_f_dff $end
$var wire 1 H clk $end
$var wire 1 `" d $end
$var wire 1 $" en $end
$var wire 1 [" r $end
$var reg 1 n" q $end
$upscope $end
$scope module d_stage $end
$var wire 32 o" alu_op_x [31:0] $end
$var wire 32 p" alu_op_y [31:0] $end
$var wire 32 q" alu_result_ex [31:0] $end
$var wire 1 /" atomic_ex $end
$var wire 1 0" atomic_id $end
$var wire 1 r" forward_rs_mem $end
$var wire 6 s" funct [5:0] $end
$var wire 32 t" imm [31:0] $end
$var wire 32 u" imm_sign_extend [31:0] $end
$var wire 32 v" imm_upper [31:0] $end
$var wire 16 w" immediate [15:0] $end
$var wire 32 x" instr [31:0] $end
$var wire 1 y" isALUImm $end
$var wire 1 z" isBEQ $end
$var wire 1 {" isBGEZAL $end
$var wire 1 |" isBGEZNL $end
$var wire 1 }" isBGTZ $end
$var wire 1 ~" isBLEZ $end
$var wire 1 !# isBLTZAL $end
$var wire 1 "# isBLTZNL $end
$var wire 1 ## isBNE $end
$var wire 1 $# isBranchLink $end
$var wire 1 %# isEqual $end
$var wire 1 &# isJ $end
$var wire 1 '# isLUI $end
$var wire 1 (# isSLL $end
$var wire 1 )# isSLLV $end
$var wire 1 *# isSRL $end
$var wire 1 +# isSRLV $end
$var wire 1 ,# isShift $end
$var wire 1 -# isShiftImm $end
$var wire 32 .# jr_pc [31:0] $end
$var wire 1 +" jump_branch $end
$var wire 1 ," jump_reg $end
$var wire 1 -" jump_target $end
$var wire 1 2" mem_byte $end
$var wire 1 9" mem_read $end
$var wire 1 8" mem_read_ex $end
$var wire 1 <" mem_sc_id $end
$var wire 1 =" mem_sc_mask_id $end
$var wire 1 ?" mem_signextend $end
$var wire 1 B" mem_we $end
$var wire 32 /# mem_write_data [31:0] $end
$var wire 1 H" movn $end
$var wire 1 J" movz $end
$var wire 6 0# op [5:0] $end
$var wire 32 1# pc [31:0] $end
$var wire 5 2# rd_addr [4:0] $end
$var wire 1 3# read_from_rs $end
$var wire 1 4# read_from_rt $end
$var wire 1 P" reg_we $end
$var wire 1 O" reg_we_ex $end
$var wire 1 Q" reg_we_mem $end
$var wire 5 5# reg_write_addr [4:0] $end
$var wire 5 6# reg_write_addr_ex [4:0] $end
$var wire 5 7# reg_write_addr_mem [4:0] $end
$var wire 32 8# reg_write_data_mem [31:0] $end
$var wire 5 9# rs_addr [4:0] $end
$var wire 32 :# rs_data [31:0] $end
$var wire 32 ;# rs_data_in [31:0] $end
$var wire 1 <# rs_mem_dependency $end
$var wire 5 =# rt_addr [4:0] $end
$var wire 32 ># rt_data [31:0] $end
$var wire 32 ?# rt_data_in [31:0] $end
$var wire 5 @# shamt [4:0] $end
$var wire 32 A# shift_amount [31:0] $end
$var wire 1 `" stall $end
$var wire 1 B# use_imm $end
$var reg 4 C# alu_opcode [3:0] $end
$upscope $end
$scope module atomic $end
$var wire 1 [" ar $end
$var wire 1 H clk $end
$var wire 1 0" d $end
$var wire 1 #" en $end
$var wire 1 \" r $end
$var reg 1 D# q $end
$upscope $end
$scope module sc $end
$var wire 1 [" ar $end
$var wire 1 H clk $end
$var wire 1 <" d $end
$var wire 1 $" en $end
$var wire 1 \" r $end
$var reg 1 E# q $end
$upscope $end
$scope module alu_op_x_id2ex $end
$var wire 1 [" ar $end
$var wire 1 H clk $end
$var wire 32 F# d [31:0] $end
$var wire 1 $" en $end
$var wire 1 \" r $end
$var reg 32 G# q [31:0] $end
$upscope $end
$scope module alu_op_y_id2ex $end
$var wire 1 [" ar $end
$var wire 1 H clk $end
$var wire 32 H# d [31:0] $end
$var wire 1 $" en $end
$var wire 1 \" r $end
$var reg 32 I# q [31:0] $end
$upscope $end
$scope module alu_opcode_id2ex $end
$var wire 1 [" ar $end
$var wire 1 H clk $end
$var wire 4 J# d [3:0] $end
$var wire 1 $" en $end
$var wire 1 \" r $end
$var reg 4 K# q [3:0] $end
$upscope $end
$scope module movn $end
$var wire 1 [" ar $end
$var wire 1 H clk $end
$var wire 1 H" d $end
$var wire 1 $" en $end
$var wire 1 \" r $end
$var reg 1 L# q $end
$upscope $end
$scope module movz $end
$var wire 1 [" ar $end
$var wire 1 H clk $end
$var wire 1 J" d $end
$var wire 1 $" en $end
$var wire 1 \" r $end
$var reg 1 M# q $end
$upscope $end
$scope module mem_write_data_id2ex $end
$var wire 1 [" ar $end
$var wire 1 H clk $end
$var wire 32 N# d [31:0] $end
$var wire 1 $" en $end
$var wire 1 \" r $end
$var reg 32 O# q [31:0] $end
$upscope $end
$scope module mem_we_id2ex $end
$var wire 1 [" ar $end
$var wire 1 H clk $end
$var wire 1 P# d $end
$var wire 1 $" en $end
$var wire 1 \" r $end
$var reg 1 Q# q $end
$upscope $end
$scope module mem_read_id2ex $end
$var wire 1 [" ar $end
$var wire 1 H clk $end
$var wire 1 R# d $end
$var wire 1 $" en $end
$var wire 1 \" r $end
$var reg 1 S# q $end
$upscope $end
$scope module mem_byte_id2ex $end
$var wire 1 [" ar $end
$var wire 1 H clk $end
$var wire 1 2" d $end
$var wire 1 $" en $end
$var wire 1 \" r $end
$var reg 1 T# q $end
$upscope $end
$scope module mem_signextend_id2ex $end
$var wire 1 [" ar $end
$var wire 1 H clk $end
$var wire 1 ?" d $end
$var wire 1 $" en $end
$var wire 1 \" r $end
$var reg 1 U# q $end
$upscope $end
$scope module reg_write_addr_id2ex $end
$var wire 1 [" ar $end
$var wire 1 H clk $end
$var wire 5 V# d [4:0] $end
$var wire 1 $" en $end
$var wire 1 \" r $end
$var reg 5 W# q [4:0] $end
$upscope $end
$scope module reg_we_id2ex $end
$var wire 1 [" ar $end
$var wire 1 H clk $end
$var wire 1 P" d $end
$var wire 1 $" en $end
$var wire 1 \" r $end
$var reg 1 X# q $end
$upscope $end
$scope module x_stage $end
$var wire 1 Y# add_check $end
$var wire 1 Z# add_neg_over $end
$var wire 1 [# add_pos_over $end
$var wire 1 \# alu_neg $end
$var wire 32 ]# alu_op_x [31:0] $end
$var wire 32 ^# alu_op_x_signed [31:0] $end
$var wire 32 _# alu_op_y [31:0] $end
$var wire 32 `# alu_op_y_signed [31:0] $end
$var wire 1 z alu_op_y_zero $end
$var wire 4 a# alu_opcode [3:0] $end
$var wire 1 } alu_overflow $end
$var wire 1 b# sub_check $end
$var wire 1 c# sub_neg_over $end
$var wire 1 d# sub_pos_over $end
$var wire 1 e# x_neg $end
$var wire 1 f# y_neg $end
$var reg 32 g# alu_result [31:0] $end
$upscope $end
$scope module alu_result_ex2mem $end
$var wire 1 H clk $end
$var wire 32 h# d [31:0] $end
$var wire 1 $" en $end
$var wire 1 [" r $end
$var reg 32 i# q [31:0] $end
$upscope $end
$scope module mem_read_ex2mem $end
$var wire 1 H clk $end
$var wire 1 j# d $end
$var wire 1 $" en $end
$var wire 1 [" r $end
$var reg 1 k# q $end
$upscope $end
$scope module mem_byte_ex2mem $end
$var wire 1 H clk $end
$var wire 1 1" d $end
$var wire 1 $" en $end
$var wire 1 [" r $end
$var reg 1 l# q $end
$upscope $end
$scope module mem_signextend_ex2mem $end
$var wire 1 H clk $end
$var wire 1 >" d $end
$var wire 1 $" en $end
$var wire 1 [" r $end
$var reg 1 m# q $end
$upscope $end
$scope module reg_write_addr_ex2mem $end
$var wire 1 H clk $end
$var wire 5 n# d [4:0] $end
$var wire 1 $" en $end
$var wire 1 [" r $end
$var reg 5 o# q [4:0] $end
$upscope $end
$scope module reg_we_ex2mem $end
$var wire 1 H clk $end
$var wire 1 O" d $end
$var wire 1 $" en $end
$var wire 1 [" r $end
$var reg 1 p# q $end
$upscope $end
$scope module reg_write_data_mem2wb $end
$var wire 1 H clk $end
$var wire 32 q# d [31:0] $end
$var wire 1 $" en $end
$var wire 1 [" r $end
$var reg 32 r# q [31:0] $end
$upscope $end
$scope module reg_write_addr_mem2wb $end
$var wire 1 H clk $end
$var wire 5 s# d [4:0] $end
$var wire 1 $" en $end
$var wire 1 [" r $end
$var reg 5 t# q [4:0] $end
$upscope $end
$scope module reg_we_mem2wb $end
$var wire 1 H clk $end
$var wire 1 Q" d $end
$var wire 1 $" en $end
$var wire 1 [" r $end
$var reg 1 u# q $end
$upscope $end
$scope module w_stage $end
$var wire 1 H clk $end
$var wire 1 $" en $end
$var wire 1 R" reg_we $end
$var wire 5 v# reg_write_addr [4:0] $end
$var wire 32 w# reg_write_data [31:0] $end
$var wire 5 x# rs_addr [4:0] $end
$var wire 32 y# rs_data [31:0] $end
$var wire 5 z# rt_addr [4:0] $end
$var wire 32 {# rt_data [31:0] $end
$upscope $end
$upscope $end
$scope module mips_local_store $end
$var wire 12 |# addr [11:0] $end
$var wire 1 H clk $end
$var wire 32 }# din [31:0] $end
$var wire 4 ~# we [3:0] $end
$var reg 32 !$ dout [31:0] $end
$scope begin column[0] $end
$upscope $end
$scope begin column[1] $end
$upscope $end
$scope begin column[2] $end
$upscope $end
$scope begin column[3] $end
$upscope $end
$upscope $end
$upscope $end
$upscope $end
$enddefinitions $end
#0
$dumpvars
bx !$
b0 ~#
b0 }#
b0 |#
bx {#
bx z#
bx y#
bx x#
b0 w#
b0 v#
0u#
b0 t#
b0 s#
b0 r#
b0 q#
0p#
b0 o#
b0 n#
0m#
0l#
0k#
0j#
b0 i#
b0 h#
b0 g#
0f#
0e#
0d#
0c#
0b#
b0 a#
b0 `#
b0 _#
b0 ^#
b0 ]#
0\#
0[#
0Z#
0Y#
0X#
b0 W#
bx V#
0U#
0T#
0S#
0R#
0Q#
xP#
b0 O#
bx N#
0M#
0L#
b0 K#
b1101 J#
b0 I#
bx H#
b0 G#
bx F#
0E#
0D#
b1101 C#
xB#
b0xxxxx A#
bx @#
bx ?#
bx >#
bx =#
0<#
bx ;#
bx :#
bx 9#
b0 8#
b0 7#
b0 6#
bx 5#
x4#
x3#
bx 2#
b0 1#
bx 0#
bx /#
bx .#
x-#
x,#
x+#
x*#
x)#
x(#
x'#
x&#
x%#
x$#
x##
x"#
x!#
x~"
x}"
x|"
x{"
xz"
xy"
bx x"
bx w"
bx0000000000000000 v"
bx u"
bx t"
bx s"
0r"
b0 q"
bx p"
bx o"
0n"
b0 m"
bx l"
b0 k"
b0 j"
b0 i"
b0xxxxxxxxxxxxxxxxxxxxxxxxxx00 h"
b0xxxxxxxxxxxxxxxxxxxxxxxxxx00 g"
b100 f"
b0 e"
b0 d"
b0xxxxxxxxxxxxxxxxxxxxxxxxxx00 c"
bx b"
0a"
0`"
b0 _"
bx ^"
bx ]"
0\"
0["
bx Z"
bx Y"
b0 X"
b0 W"
b0 V"
b0 U"
bx T"
b0 S"
0R"
0Q"
xP"
0O"
0N"
b0 M"
b0 L"
b0 K"
xJ"
0I"
xH"
0G"
b0 F"
bx E"
b0 D"
b0 C"
xB"
0A"
0@"
x?"
0>"
0="
x<"
0;"
0:"
09"
08"
bx 7"
b0xxxxxxxx 6"
bx 5"
bx 4"
03"
x2"
01"
00"
0/"
b0 ."
x-"
0,"
x+"
bx *"
b0 )"
b0 ("
bx '"
bx &"
1%"
1$"
0#"
b0 ""
b0 !"
b0 ~
0}
b1101 |
b0 {
1z
bx y
b0 x
bx w
b0 v
bx u
bx t
xs
xr
bx q
b0 p
b0 o
b0 n
b0 m
b0 l
b0 k
b0 j
bx i
bx h
0g
bx f
bx e
bx d
b0 c
b0 b
b0 a
0`
bx _
b0 ^
bx ]
b0 \
b0 [
bx Z
b0xxxxxxxxxxxxxxxxxxxx10 Y
0X
0W
1V
0U
0T
bx S
b0 R
b0 Q
b0 P
bx O
0N
b0 M
b0 L
bx K
0J
b0 I
0H
b0 G
b1 F
b0 E
b0xxxxxxxxxxxxxxxxxxxx10 D
b11101000110010101110011011101000111001100101111011000010110111001100100001011110111010001100101011100110111010000101110011100100110010101110011011101010110110001110100 C
0B
b1 A
b1 @
b0 ?
b0 >
bx =
bx <
b0 ;
b100000000000000000 :
b1111101000 9
b111010001100101011100110111010001110011001011110110000101101110011001000010111101100010011101010110100101101100011001000010111101100001011100000111000000101110011010000110010101111000 8
bx 7
bx 6
bx 5
bx 4
b11101000110010101110011011101000111001100101111011000010110111001100100001011110111001101110100011100100110010101100001011011010111011101100001011101100110010100101110011101100110001101100100 3
b1 2
b0 1
00
b0 /
b0 .
b0 -
b0 ,
b0 +
b0 *
bx )
bx (
bx '
b0 &
b0 %
bx $
b0 #
b0 "
bx !
$end
#5000
b0 A#
0,#
b0 w
b0 o"
b0 F#
b0 :#
b0 *"
b0 .#
0$#
0-#
0+"
b10000000000000100000000000000000 y
b10000000000000100000000000000000 p"
b10000000000000100000000000000000 H#
1P"
0P#
b0 Z"
b0 ;#
b0 y#
0|"
0{"
0}"
0~"
0"#
0!#
b10000 T"
b10000 5#
b10000 V#
0(#
0*#
0)#
0+#
b1100 C#
b1100 |
b1100 J#
b10000000000000100000000000000000 t"
b100 g"
b100 h"
0z"
0##
0&#
0-"
1B#
03#
04#
1'#
0y"
0B"
02"
1?"
0<"
b1111 0#
b0 Y"
b0 9#
b0 x#
b10000 ]"
b10000 =#
b10000 z#
b10000 2#
b0 @#
0H"
0J"
b10 s"
b11111111111111111000000000000010 u"
b10000000000000100000000000000000 v"
b1000000000000010 w"
b100001000000000000010 b"
b10000100000000000001000 c"
b111100000100001000000000000010 '"
b111100000100001000000000000010 x"
b111100000100001000000000000010 K
b111100000100001000000000000010 $
b111100000100001000000000000010 Z
b111100000100001000000000000010 &"
b111100000100001000000000000010 l"
bx S
bx !$
b0 u
b0 )
b0 i
b0 t
b0 (
b0 h
0s
0r
b0 q
10
1H
#10000
00
0H
#15000
bx !$
bx S
10
1H
#20000
1["
00
0H
b0xxxxxxxxxxxxxxxxxxxx00 D
b0xxxxxxxxxxxxxxxxxxxx00 Y
1B
1g
#25000
0V
bx ,
bx m
bx +
bx Q
bx -
bx n
0[#
1d#
1\#
b1 G
1O"
bx l
bx C"
bx }#
1f#
b10000000000000100000000000000000 g#
b10000000000000100000000000000000 ~
b10000000000000100000000000000000 q"
1W
b10000000000000100000000000000000 \
b10000000000000100000000000000000 ."
b10000000000000100000000000000000 ""
b10000000000000100000000000000000 h#
b1000 g"
b1000 h"
b1 %
b1 [
bx S
bx !$
1X#
1N"
b10000 W#
b10000 S"
b10000 6#
b10000 n#
1U#
1>"
bx O#
bx D"
b1100 K#
b1100 {
b1100 a#
b10000000000000100000000000000000 I#
b10000000000000100000000000000000 `#
0z
b10000000000000100000000000000000 x
b10000000000000100000000000000000 _#
b111100000100001000000000000010 m"
b111100000100001000000000000010 )"
b100 i"
b100 M"
b100 d"
b100 j"
b100 ^
b100 K"
10
1H
#30000
00
0H
b1111100111 1
b0xxxxxxxxxxxxxxxxxxxx01 D
b0xxxxxxxxxxxxxxxxxxxx01 Y
#35000
b1 y
b1 p"
b1 H#
b10001 T"
b10001 5#
b10001 V#
b11 C#
b11 |
b11 J#
b1 t"
13#
0'#
1y"
b1101 0#
b10001 ]"
b10001 =#
b10001 z#
b0 2#
b1 s"
b1 u"
b10000000000000000 v"
b1 w"
b100010000000000000001 b"
b10001000000000000000100 c"
b10 G
b110100000100010000000000000001 '"
b110100000100010000000000000001 x"
b1100 g"
b1100 h"
b10 %
b10 [
b1 ("
bx 6"
bx !$
bx S
b110100000100010000000000000001 K
b110100000100010000000000000001 $
b110100000100010000000000000001 Z
b110100000100010000000000000001 &"
b110100000100010000000000000001 l"
b1000 i"
b1000 M"
b1000 d"
b1000 j"
b1000 ^
b1000 K"
b100 k"
b1000 f"
b100 L"
b100 e"
b100 1#
b10000000000000100000000000000000 i#
b10000000000000100000000000000000 !"
b10000000000000100000000000000000 W"
b10000000000000100000000000000000 8#
b10000000000000100000000000000000 q#
1m#
1@"
b10000 o#
b10000 U"
b10000 7#
b10000 s#
1p#
1Q"
10
1H
#40000
00
0H
b1111100110 1
#45000
b11011110101011110000000000000000 y
b11011110101011110000000000000000 p"
b11011110101011110000000000000000 H#
b1000 T"
b1000 5#
b1000 V#
b1100 C#
b1100 |
b1100 J#
b11011110101011110000000000000000 t"
1V
03#
1'#
04#
0y"
b1111 0#
b1000 ]"
b1000 =#
b1000 z#
b11011 2#
b11010 @#
b101111 s"
b11111111111111111101111010101111 u"
b11011110101011110000000000000000 v"
b1101111010101111 w"
b10001101111010101111 b"
b1000110111101010111100 c"
0\#
b11 G
b111100000010001101111010101111 '"
b111100000010001101111010101111 x"
0d#
0f#
b1 g#
b1 ~
b1 q"
0U
0W
b1 \
b1 ."
b1 ""
b1 h#
b10 ("
b10000 g"
b10000 h"
b11 %
b11 [
b111100000010001101111010101111 K
b111100000010001101111010101111 $
b111100000010001101111010101111 Z
b111100000010001101111010101111 &"
b111100000010001101111010101111 l"
bx S
bx !$
1u#
1R"
b10000 t#
b10000 V"
b10000 v#
b10000000000000100000000000000000 r#
b10000000000000100000000000000000 X"
b10000000000000100000000000000000 w#
b10001 W#
b10001 S"
b10001 6#
b10001 n#
b11 K#
b11 {
b11 a#
b1 I#
b1 `#
b1 x
b1 _#
b110100000100010000000000000001 m"
b110100000100010000000000000001 )"
b1000 k"
b1100 f"
b1000 L"
b1000 e"
b1000 1#
b1100 i"
b1100 M"
b1100 d"
b1100 j"
b1100 ^
b1100 K"
10
1H
#50000
00
0H
b1111100101 1
#55000
b0xxxxx A#
bx w
bx o"
bx F#
bx :#
bx *"
bx .#
b11111111111111111011111011101111 y
b11111111111111111011111011101111 p"
b11111111111111111011111011101111 H#
b11 C#
b11 |
b11 J#
bx Z"
bx ;#
bx y#
b11111111111111111011111011101111 t"
0V
1U
b100000000000000 "
b100000000000000 L
13#
0'#
1y"
b1101 0#
b1000 Y"
b1000 9#
b1000 x#
b10111 2#
b11011 @#
b11111111111111111011111011101111 u"
b10111110111011110000000000000000 v"
b1011111011101111 w"
b1000010001011111011101111 b"
b100001000101111101110111100 c"
b100 G
0[#
1d#
1\#
b100000000000000 j
b100000000000000 *
b100000000000000 k
b100000000000000 b
b100000000000000 &
b100000000000000 c
b110101000010001011111011101111 '"
b110101000010001011111011101111 x"
b10100 g"
b10100 h"
b100 %
b100 [
b11 ("
1f#
b11011110101011110000000000000000 g#
b11011110101011110000000000000000 ~
b11011110101011110000000000000000 q"
b11011110101011110000000000000000 \
b11011110101011110000000000000000 ."
b11011110101011110000000000000000 ""
b11011110101011110000000000000000 h#
bx !$
bx S
b110101000010001011111011101111 K
b110101000010001011111011101111 $
b110101000010001011111011101111 Z
b110101000010001011111011101111 &"
b110101000010001011111011101111 l"
b10000 i"
b10000 M"
b10000 d"
b10000 j"
b10000 ^
b10000 K"
b1100 k"
b10000 f"
b1100 L"
b1100 e"
b1100 1#
b111100000010001101111010101111 m"
b111100000010001101111010101111 )"
b11011110101011110000000000000000 I#
b11011110101011110000000000000000 `#
b11011110101011110000000000000000 x
b11011110101011110000000000000000 _#
b1100 K#
b1100 {
b1100 a#
b1000 W#
b1000 S"
b1000 6#
b1000 n#
b1 i#
b1 !"
b1 W"
b1 8#
b1 q#
b10001 o#
b10001 U"
b10001 7#
b10001 s#
10
1H
#60000
00
0H
b1111100100 1
#65000
b110001010000010000000000000000 y
b110001010000010000000000000000 p"
b110001010000010000000000000000 H#
b0 Z"
b0 ;#
b0 y#
b1001 T"
b1001 5#
b1001 V#
b1100 C#
b1100 |
b1100 J#
b110001010000010000000000000000 t"
b0 A#
b11x11111x111x11 "
b11x11111x111x11 L
03#
1'#
04#
0y"
b1111 0#
b0 Y"
b0 9#
b0 x#
b1001 ]"
b1001 =#
b1001 z#
b110 2#
b101 @#
b1 s"
b11000101000001 u"
b110001010000010000000000000000 v"
b11000101000001 w"
b10010011000101000001 b"
b1001001100010100000100 c"
b0 w
b0 o"
b0 F#
xd#
b11111x111x11 |#
b11x11111x111x11 j
b11x11111x111x11 *
b11x11111x111x11 k
b11x11111x111x11 b
b11x11111x111x11 &
b11x11111x111x11 c
b101 G
b111100000010010011000101000001 '"
b111100000010010011000101000001 x"
b0 :#
b0 *"
b0 .#
xe#
b11111111111111111x11111x111x1111 g#
b11111111111111111x11111x111x1111 ~
b11111111111111111x11111x111x1111 q"
b11111111111111111x11111x111x1111 \
b11111111111111111x11111x111x1111 ."
b11111111111111111x11111x111x1111 ""
b11111111111111111x11111x111x1111 h#
b100 ("
b11000 g"
b11000 h"
b101 %
b101 [
b111100000010010011000101000001 K
b111100000010010011000101000001 $
b111100000010010011000101000001 Z
b111100000010010011000101000001 &"
b111100000010010011000101000001 l"
bx S
bx !$
b10001 t#
b10001 V"
b10001 v#
b1 r#
b1 X"
b1 w#
b1000 o#
0r"
b1000 U"
b1000 7#
b1000 s#
b11011110101011110000000000000000 i#
b11011110101011110000000000000000 !"
b11011110101011110000000000000000 W"
b11011110101011110000000000000000 8#
b11011110101011110000000000000000 q#
b11 K#
b11 {
b11 a#
b11111111111111111011111011101111 I#
b11111111111111111011111011101111 `#
b11111111111111111011111011101111 x
b11111111111111111011111011101111 _#
bx G#
bx ^#
bx v
bx ]#
b110101000010001011111011101111 m"
b110101000010001011111011101111 )"
b10000 k"
b10100 f"
b10000 L"
b10000 e"
b10000 1#
b10100 i"
b10100 M"
b10100 d"
b10100 j"
b10100 ^
b10100 K"
10
1H
#70000
00
0H
b1111100011 1
